<svg width="24" height="24" viewBox="0 0 24 24" fill="none" xmlns="http://www.w3.org/2000/svg">
<path fill-rule="evenodd" clip-rule="evenodd" d="M11.2964 8.71049C11.484 8.52302 11.7383 8.4177 12.0034 8.4177C12.2686 8.4177 12.5229 8.52302 12.7104 8.71049L17.3034 13.3035C17.486 13.4898 17.5877 13.7406 17.5863 14.0014C17.585 14.2622 17.4808 14.512 17.2964 14.6965C17.112 14.8809 16.8622 14.9851 16.6014 14.9864C16.3405 14.9877 16.0897 14.8861 15.9034 14.7035L12.0034 10.8035L8.10343 14.7035C7.91714 14.8861 7.66633 14.9877 7.4055 14.9864C7.14467 14.9851 6.8949 14.8809 6.71047 14.6965C6.52603 14.512 6.42183 14.2622 6.42051 14.0014C6.4192 13.7406 6.52087 13.4898 6.70343 13.3035L11.2964 8.71049Z" fill="#0B1125"/>
</svg>
