<svg width="24" height="24" viewBox="0 0 24 24" fill="none" xmlns="http://www.w3.org/2000/svg">
<path opacity="0.3" d="M4 5C4 3.34315 5.34315 2 7 2H12H13C13.5523 2 14 2.44772 14 3V5C14 6.65685 15.3431 8 17 8H19C19.5523 8 20 8.44772 20 9V12V19C20 20.6569 18.6569 22 17 22H7C5.34315 22 4 20.6569 4 19V5Z" fill="#0B1125"/>
<path d="M9 12C8.44772 12 8 11.5523 8 11C8 10.4477 8.44772 10 9 10L13 10C13.5523 10 14 10.4477 14 11C14 11.5523 13.5523 12 13 12L9 12Z" fill="#0B1125"/>
<path d="M9 16C8.44772 16 8 15.5523 8 15C8 14.4477 8.44772 14 9 14H15C15.5523 14 16 14.4477 16 15C16 15.5523 15.5523 16 15 16H9Z" fill="#0B1125"/>
<path opacity="0.5" d="M17 7H19.3101C19.9337 7 20.246 6.246 19.805 5.80503L16.195 2.19498C15.754 1.754 15 2.06632 15 2.68995V5C15 6.10457 15.8954 7 17 7Z" fill="#0B1125"/>
</svg>
