<svg width="24" height="24" viewBox="0 0 24 24" fill="none" xmlns="http://www.w3.org/2000/svg">
<path fill-rule="evenodd" clip-rule="evenodd" d="M18.97 12.56L19.56 12.9C19.7 12.98 19.83 13.08 19.94 13.19C20.6 13.81 20.76 14.82 20.29 15.63L19.29 17.37C18.82 18.18 17.87 18.54 17 18.29C16.85 18.24 16.7 18.18 16.56 18.1L15.97 17.76L15 18.32V19C15 19.16 14.98 19.32 14.94 19.47C14.73 20.35 13.94 21 13 21H11C10.06 21 9.26999 20.35 9.05999 19.47C9.01999 19.32 8.99999 19.16 8.99999 19V18.32L8.02999 17.76L7.43999 18.1C7.29999 18.18 7.14999 18.24 6.99999 18.29C6.12999 18.54 5.17999 18.18 4.70999 17.37L3.70999 15.63C3.22999 14.82 3.39999 13.81 4.05999 13.19C4.16999 13.08 4.29999 12.98 4.43999 12.9L5.02999 12.56V11.44L4.43999 11.1C4.29999 11.02 4.16999 10.92 4.05999 10.81C3.39999 10.19 3.22999 9.18 3.70999 8.37L4.70999 6.63C5.17999 5.82 6.12999 5.46 6.99999 5.71C7.14999 5.76 7.29999 5.82 7.43999 5.9L8.02999 6.24L8.99999 5.68V5C8.99999 4.84 9.01999 4.68 9.05999 4.53C9.26999 3.65 10.06 3 11 3H13C13.94 3 14.73 3.65 14.94 4.53C14.98 4.68 15 4.84 15 5V5.68L15.97 6.24L16.56 5.9C16.7 5.82 16.85 5.76 17 5.71C17.87 5.46 18.82 5.82 19.29 6.63L20.29 8.37C20.76 9.18 20.6 10.19 19.94 10.81C19.83 10.92 19.7 11.02 19.56 11.1L18.97 11.44V12.56ZM16.92 11.16C16.91 11.03 16.88 10.91 16.85 10.8C16.82 10.67 16.78 10.54 16.74 10.42H16.75L18.5 9.4L18.56 9.37L18.2 8.74L18.03 8.46L17.56 7.63L17.49 7.67L15.74 8.68C15.48 8.38 15.18 8.12 14.85 7.89C14.8199 7.87088 14.7899 7.85102 14.7597 7.83102C14.6792 7.77779 14.5972 7.72361 14.51 7.68C14.41 7.62 14.31 7.56 14.21 7.52C14.18 7.5 14.14 7.48 14.11 7.47C14.01 7.42 13.9 7.37 13.8 7.34C13.79 7.33 13.78 7.32 13.77 7.32C13.736 7.30869 13.7013 7.29657 13.6662 7.28434C13.5772 7.25331 13.486 7.22151 13.4 7.2C13.27 7.16 13.14 7.13 13 7.1V5H11V7.1C10.86 7.13 10.73 7.16 10.6 7.2C10.5139 7.22151 10.4227 7.25331 10.3338 7.28434C10.2987 7.29657 10.2639 7.30869 10.23 7.32C10.22 7.32 10.21 7.33 10.2 7.34C10.1 7.37 9.98999 7.42 9.88999 7.47C9.85999 7.48 9.81999 7.5 9.78999 7.52C9.67999 7.57 9.57999 7.62 9.48999 7.68C9.36999 7.74 9.25999 7.81 9.14999 7.89C8.81999 8.12 8.51999 8.38 8.25999 8.68L6.50999 7.67L6.43999 7.63L5.96999 8.46L5.79999 8.74L5.43999 9.37L5.49999 9.4L7.24999 10.42H7.25999C7.21999 10.54 7.17999 10.67 7.14999 10.8C7.11999 10.91 7.08999 11.03 7.07999 11.16C7.01999 11.43 6.99999 11.71 6.99999 12C6.99999 12.29 7.01999 12.57 7.07999 12.84C7.08999 12.97 7.11999 13.09 7.14999 13.2C7.17999 13.33 7.21999 13.46 7.25999 13.58H7.24999L5.49999 14.6L5.43999 14.63L5.79999 15.26L5.96999 15.54L6.43999 16.37L6.50999 16.33L8.25999 15.32C8.51999 15.62 8.81999 15.88 9.14999 16.11C9.18004 16.1291 9.21008 16.149 9.24033 16.169C9.32083 16.2222 9.40277 16.2764 9.48999 16.32C9.58999 16.38 9.68999 16.44 9.78999 16.48C9.81999 16.5 9.85999 16.52 9.88999 16.53C9.98999 16.58 10.1 16.63 10.2 16.66C10.21 16.67 10.22 16.68 10.23 16.68C10.2639 16.6913 10.2987 16.7034 10.3338 16.7157C10.4227 16.7467 10.5139 16.7785 10.6 16.8C10.73 16.84 10.86 16.87 11 16.9V19H13V16.9C13.14 16.87 13.27 16.84 13.4 16.8C13.486 16.7785 13.5773 16.7467 13.6662 16.7157C13.7013 16.7034 13.7361 16.6913 13.77 16.68C13.78 16.68 13.79 16.67 13.8 16.66C13.9 16.63 14.01 16.58 14.11 16.53C14.14 16.52 14.18 16.5 14.21 16.48C14.31 16.44 14.41 16.38 14.51 16.32C14.5972 16.2764 14.6792 16.2222 14.7597 16.169C14.7899 16.149 14.8199 16.1291 14.85 16.11C15.18 15.88 15.48 15.62 15.74 15.32L17.49 16.33L17.56 16.37L18.03 15.54L18.2 15.26L18.56 14.63L18.5 14.6L16.75 13.58H16.74C16.78 13.46 16.82 13.33 16.85 13.2C16.88 13.09 16.91 12.97 16.92 12.84C16.98 12.57 17 12.29 17 12C17 11.71 16.98 11.43 16.92 11.16Z" fill="#0B1125"/>
<circle cx="12" cy="12" r="2" fill="#0B1125"/>
</svg>
