<svg width="24" height="24" viewBox="0 0 24 24" fill="none" xmlns="http://www.w3.org/2000/svg">
<path opacity="0.5" fill-rule="evenodd" clip-rule="evenodd" d="M12 22C17.5228 22 22 17.5228 22 12C22 6.47715 17.5228 2 12 2C6.47715 2 2 6.47715 2 12C2 17.5228 6.47715 22 12 22ZM10.6765 8.978C10.9751 8.894 11.2925 8.852 11.6285 8.852C11.9645 8.852 12.2165 8.93133 12.3845 9.09C12.5618 9.24867 12.6505 9.44 12.6505 9.664C12.6505 9.93467 12.5618 10.1773 12.3845 10.392C12.2071 10.5973 12.0111 10.8073 11.7965 11.022C11.6471 11.1713 11.5025 11.3253 11.3625 11.484C11.2225 11.6427 11.0965 11.8153 10.9845 12.002C10.8818 12.1793 10.7978 12.3753 10.7325 12.59C10.6671 12.7953 10.6345 13.0287 10.6345 13.29V13.598C10.6438 13.71 10.6578 13.8127 10.6765 13.906H12.5245C12.5151 13.85 12.5105 13.7847 12.5105 13.71V13.542C12.5105 13.3833 12.5431 13.2293 12.6085 13.08C12.6738 12.9213 12.7531 12.772 12.8465 12.632C12.9491 12.492 13.0611 12.3613 13.1825 12.24C13.3038 12.1093 13.4205 11.988 13.5325 11.876C13.6818 11.7267 13.8358 11.568 13.9945 11.4C14.1531 11.232 14.2931 11.0547 14.4145 10.868C14.5358 10.6813 14.6338 10.4807 14.7085 10.266C14.7925 10.042 14.8345 9.79933 14.8345 9.538C14.8345 9.27667 14.7878 9.00133 14.6945 8.712C14.6105 8.42267 14.4565 8.15667 14.2325 7.914C14.0085 7.67133 13.7005 7.47067 13.3085 7.312C12.9258 7.15333 12.4358 7.074 11.8385 7.074C11.3625 7.074 10.8771 7.13933 10.3825 7.27C9.88779 7.39133 9.45845 7.56867 9.09445 7.802L9.68245 9.384C10.0465 9.19733 10.3778 9.062 10.6765 8.978ZM12.5245 16.846C12.7951 16.622 12.9305 16.3047 12.9305 15.894C12.9305 15.4833 12.7951 15.166 12.5245 14.942C12.2631 14.718 11.9645 14.606 11.6285 14.606C11.2925 14.606 10.9891 14.718 10.7185 14.942C10.4571 15.166 10.3265 15.4833 10.3265 15.894C10.3265 16.3047 10.4571 16.622 10.7185 16.846C10.9891 17.07 11.2925 17.182 11.6285 17.182C11.9645 17.182 12.2631 17.07 12.5245 16.846Z" fill="#0B1125"/>
</svg>
