<svg width="24" height="24" viewBox="0 0 24 24" fill="none" xmlns="http://www.w3.org/2000/svg">
<path fill-rule="evenodd" clip-rule="evenodd" d="M18.1307 2.75507C19.7199 2.18749 21.2544 3.72199 20.6869 5.31123L15.4 20.1146C14.7916 21.818 12.4143 21.903 11.6858 20.2474L9.09129 14.3506L3.19457 11.7561C1.53894 11.0276 1.62394 8.65035 3.32737 8.04198L18.1307 2.75507ZM18.8034 4.63856L4.00005 9.92546L9.62658 12.4011L11.8797 10.148C12.2702 9.7575 12.9034 9.7575 13.2939 10.148C13.6844 10.5386 13.6844 11.1717 13.2939 11.5622L11.0408 13.8154L13.5165 19.4419L18.8034 4.63856Z" fill="#0B1125"/>
</svg>
