<svg width="24" height="24" viewBox="0 0 24 24" fill="none" xmlns="http://www.w3.org/2000/svg">
<path fill-rule="evenodd" clip-rule="evenodd" d="M12 5C10.3431 5 9 6.34315 9 8V10H15V8C15 6.34315 13.6569 5 12 5ZM7 8V10C4.79086 10 3 11.7909 3 14V17C3 19.2091 4.79086 21 7 21H17C19.2091 21 21 19.2091 21 17V14C21 11.7909 19.2091 10 17 10V8C17 5.23858 14.7614 3 12 3C9.23858 3 7 5.23858 7 8ZM7 12H16H17C18.1046 12 19 12.8954 19 14V17C19 18.1046 18.1046 19 17 19H7C5.89543 19 5 18.1046 5 17V14C5 12.8954 5.89543 12 7 12ZM12 14C11.4477 14 11 14.4477 11 15V16C11 16.5523 11.4477 17 12 17C12.5523 17 13 16.5523 13 16V15C13 14.4477 12.5523 14 12 14Z" fill="#0B1125"/>
</svg>
