<svg width="24" height="24" viewBox="0 0 24 24" fill="none" xmlns="http://www.w3.org/2000/svg">
<path d="M7 2C4.79086 2 3 3.79086 3 6V18C3 20.2091 4.79086 22 7 22H11C13.2091 22 15 20.2091 15 18C15 17.4477 14.5523 17 14 17C13.4477 17 13 17.4477 13 18C13 19.1046 12.1046 20 11 20H7C5.89543 20 5 19.1046 5 18V6C5 4.89543 5.89543 4 7 4H11C12.1046 4 13 4.89543 13 6C13 6.55228 13.4477 7 14 7C14.5523 7 15 6.55228 15 6C15 3.79086 13.2091 2 11 2H7Z" fill="#0B1125"/>
<path d="M17.5 14.2929C17.1095 14.6834 17.1095 15.3166 17.5 15.7071C17.8906 16.0976 18.5237 16.0976 18.9142 15.7071L21.5607 13.0607C22.1464 12.4749 22.1464 11.5251 21.5607 10.9393L18.9142 8.29292C18.5237 7.9024 17.8906 7.9024 17.5 8.29292C17.1095 8.68345 17.1095 9.31661 17.5 9.70714L18.7929 11L13 11C12.4477 11 12 11.4477 12 12C12 12.5523 12.4477 13 13 13L18.7929 13L17.5 14.2929Z" fill="#0B1125"/>
</svg>
