<svg width="24" height="24" viewBox="0 0 24 24" fill="none" xmlns="http://www.w3.org/2000/svg">
<path fill-rule="evenodd" clip-rule="evenodd" d="M12 5.64405V17.0178C12.4924 17.0178 12.9848 17.1389 13.4311 17.3811L16.3237 18.9511L15.7245 15.7148C15.5396 14.7163 15.8724 13.692 16.6089 12.9928L18.9959 10.7269L15.7329 10.2968C14.7261 10.164 13.8548 9.53098 13.4174 8.61446L12 5.64405ZM12 19.0178C11.8359 19.0178 11.6718 19.0582 11.523 19.1389L6.78846 21.7085C6.69605 21.7587 6.60153 21.7927 6.50718 21.8121C5.8467 21.948 5.19415 21.3712 5.32815 20.6476L6.30898 15.3507C6.37061 15.0178 6.25967 14.6764 6.01417 14.4434L2.10724 10.7346C1.49721 10.1555 1.83112 9.12784 2.66502 9.01791L8.00574 8.31391C8.34135 8.26967 8.63179 8.05865 8.77757 7.75314L11.0975 2.89136C11.2786 2.5118 11.6393 2.32202 12 2.32202C12.3607 2.32202 12.7214 2.5118 12.9025 2.89136L15.2225 7.75314C15.3682 8.05865 15.6587 8.26967 15.9943 8.31391L21.335 9.01791C22.1689 9.12784 22.5028 10.1555 21.8928 10.7346L17.9859 14.4434C17.7403 14.6764 17.6294 15.0178 17.691 15.3507L18.6719 20.6476C18.825 21.4746 17.9508 22.1098 17.2116 21.7085L12.477 19.1389C12.3283 19.0582 12.1641 19.0178 12 19.0178Z" fill="#0B1125"/>
</svg>
