<svg width="24" height="24" viewBox="0 0 24 24" fill="none" xmlns="http://www.w3.org/2000/svg">
<path fill-rule="evenodd" clip-rule="evenodd" d="M7 4.99999C5.89543 4.99999 5 5.89542 5 6.99999V17C5 18.1046 5.89543 19 7 19H17C18.1046 19 19 18.1046 19 17V11C19 10.4477 19.4477 9.99999 20 9.99999C20.5523 9.99999 21 10.4477 21 11V17C21 19.2091 19.2091 21 17 21H7C4.79086 21 3 19.2091 3 17V6.99999C3 4.79085 4.79086 2.99999 7 2.99999H13C13.5523 2.99999 14 3.44771 14 3.99999C14 4.55228 13.5523 4.99999 13 4.99999H7Z" fill="#0B1125"/>
<path d="M10.3671 11.5224C10.3977 11.3083 10.4969 11.1098 10.6499 10.9568L17.4853 4.1214L19.6066 6.24272L12.7712 13.0781C12.6182 13.2311 12.4197 13.3303 12.2056 13.3609L10.7206 13.5731C10.3906 13.6202 10.1078 13.3374 10.1549 13.0074L10.3671 11.5224Z" fill="#0B1125"/>
<path d="M18.1924 3.41429L18.5459 3.06074C19.1317 2.47495 20.0815 2.47495 20.6673 3.06074C21.253 3.64653 21.253 4.59627 20.6673 5.18206L20.3137 5.53561L18.1924 3.41429Z" fill="#0B1125"/>
</svg>
